<?xml version="1.0" encoding="UTF-8"?>
<CustomTab xmlns="http://soap.sforce.com/2006/04/metadata">
    <description>Gainsight Alerts page tab.</description>
    <label>Actions</label>
    <mobileReady>false</mobileReady>
    <motif>Custom83: Pencil</motif>
    <page>ExportChurnAnalytics</page>
</CustomTab>
