<?xml version="1.0" encoding="UTF-8"?>
<CustomTab xmlns="http://soap.sforce.com/2006/04/metadata">
    <description>OpenAir Workspaces Module</description>
    <frameHeight>600</frameHeight>
    <hasSidebar>false</hasSidebar>
    <label>PS Workspaces</label>
    <mobileReady>false</mobileReady>
    <motif>Custom3: Sun</motif>
    <url>https://www.openair.com/salesforce.pl?action=to_app;app=km;db_id=45810;nsk=sf_lightning;sf_login={!User.Username};api_session_id={!$Api.Session_ID};serverURL={!$Api.Partner_Server_URL_100}</url>
    <urlEncodingKey>UTF-8</urlEncodingKey>
</CustomTab>
